…
``` r
saveRDS(res2002, "../data/pvl-lrt-run2002.rds")
```

``` r
res2002
```

    ## # A tibble: 2,780 x 7
    ##    run_num job_num local_gene_id nonlocal_gene_id   lrt nonlocal_gene_s…
    ##    <chr>   <chr>   <chr>         <chr>            <dbl> <chr>           
    ##  1 pvl-ru… 618     ENSMUSG00000… ENSMUSG00000034…  73.0 Myo15b          
    ##  2 pvl-ru… 1313    ENSMUSG00000… ENSMUSG00000034…  65.2 Myo15b          
    ##  3 pvl-ru… 558     ENSMUSG00000… ENSMUSG00000003…  59.0 Cacnb3          
    ##  4 pvl-ru… 1253    ENSMUSG00000… ENSMUSG00000003…  57.9 Cacnb3          
    ##  5 pvl-ru… 2286    ENSMUSG00000… ENSMUSG00000034…  53.7 Myo15b          
    ##  6 pvl-ru… 2226    ENSMUSG00000… ENSMUSG00000003…  52.0 Cacnb3          
    ##  7 pvl-ru… 1514    ENSMUSG00000… ENSMUSG00000084…  43.1 Gm12929         
    ##  8 pvl-ru… 201     ENSMUSG00000… ENSMUSG00000034…  41.0 Myo15b          
    ##  9 pvl-ru… 141     ENSMUSG00000… ENSMUSG00000003…  40.5 Cacnb3          
    ## 10 pvl-ru… 624     ENSMUSG00000… ENSMUSG00000036…  40.3 Myrf            
    ## # ... with 2,770 more rows, and 1 more variable: local_gene_symbol <chr>
…
``` r
saveRDS(res, "../data/pvl-lrt-runs-2001-and-2002.rds")
```

Let’s arrange `res` by gene symbols:

``` r
(res_ordered <- res %>% 
  arrange(local_gene_symbol, nonlocal_gene_symbol))
```

    ## # A tibble: 2,919 x 7
    ##    run_num job_num local_gene_id nonlocal_gene_id     lrt nonlocal_gene_s…
    ##    <chr>   <chr>   <chr>         <chr>              <dbl> <chr>           
    ##  1 pvl-ru… 790     ENSMUSG00000… ENSMUSG00000045…  0.0481 1190002N15Rik   
    ##  2 pvl-ru… 815     ENSMUSG00000… ENSMUSG00000079…  3.49   2610042L04Rik   
    ##  3 pvl-ru… 793     ENSMUSG00000… ENSMUSG00000048…  5.20   4930539E08Rik   
    ##  4 pvl-ru… 798     ENSMUSG00000… ENSMUSG00000052…  1.21   9930013L23Rik   
    ##  5 pvl-ru… 802     ENSMUSG00000… ENSMUSG00000057…  3.20   Aadat           
    ##  6 pvl-ru… 783     ENSMUSG00000… ENSMUSG00000042…  9.30   Abcb4           
    ##  7 pvl-ru… 803     ENSMUSG00000… ENSMUSG00000062…  5.24   Acat3           
    ##  8 pvl-ru… 799     ENSMUSG00000… ENSMUSG00000052…  6.00   Acot4           
    ##  9 pvl-ru… 801     ENSMUSG00000… ENSMUSG00000054…  2.02   Adam10          
    ## 10 pvl-ru… 724     ENSMUSG00000… ENSMUSG00000024… 12.1    Afg3l2          
    ## # ... with 2,909 more rows, and 1 more variable: local_gene_symbol <chr>
…
``` r
e_tib <- expr_tib %>% 
  left_join(rna_annot, by = c("gene1" = "gene_id")) %>%
  rename(g1_symbol = symbol) %>%
  left_join(rna_annot, by = c("gene2" = "gene_id")) %>%
  rename(g2_symbol = symbol) 

e_tib %>%
  filter(g1_symbol == "Hnf4a") %>% 
  arrange(desc(cor))
```

    ## # A tibble: 160 x 5
    ##      cor gene1              gene2              g1_symbol g2_symbol
    ##    <dbl> <chr>              <chr>              <chr>     <chr>    
    ##  1 1     ENSMUSG00000017950 ENSMUSG00000017950 Hnf4a     Hnf4a    
    ##  2 0.559 ENSMUSG00000017950 ENSMUSG00000034427 Hnf4a     Myo15b   
    ##  3 0.541 ENSMUSG00000017950 ENSMUSG00000003352 Hnf4a     Cacnb3   
    ##  4 0.517 ENSMUSG00000017950 ENSMUSG00000074063 Hnf4a     Osgin1   
    ##  5 0.513 ENSMUSG00000017950 ENSMUSG00000026175 Hnf4a     Vil1     
    ##  6 0.460 ENSMUSG00000017950 ENSMUSG00000020182 Hnf4a     Ddc      
    ##  7 0.458 ENSMUSG00000017950 ENSMUSG00000025422 Hnf4a     Agap2    
    ##  8 0.448 ENSMUSG00000017950 ENSMUSG00000030200 Hnf4a     Bcl2l14  
    ##  9 0.448 ENSMUSG00000017950 ENSMUSG00000034295 Hnf4a     Fhod3    
    ## 10 0.439 ENSMUSG00000017950 ENSMUSG00000036206 Hnf4a     Sh3bp4   
    ## # ... with 150 more rows

Which local genes are correlated with Hnf4a?

``` r
e_tib %>%
  filter(g1_symbol == "Hnf4a") %>% 
  filter(g2_symbol %in% colnames(lrt_mat)) %>% # subset to only the local genes
  arrange(desc(cor))
```

    ## # A tibble: 21 x 5
    ##        cor gene1              gene2              g1_symbol g2_symbol    
    ##      <dbl> <chr>              <chr>              <chr>     <chr>        
    ##  1 1       ENSMUSG00000017950 ENSMUSG00000017950 Hnf4a     Hnf4a        
    ##  2 0.229   ENSMUSG00000017950 ENSMUSG00000054582 Hnf4a     Pabpc1l      
    ##  3 0.195   ENSMUSG00000017950 ENSMUSG00000017897 Hnf4a     Eya2         
    ##  4 0.192   ENSMUSG00000017950 ENSMUSG00000027597 Hnf4a     Ahcy         
    ##  5 0.115   ENSMUSG00000017950 ENSMUSG00000035268 Hnf4a     Pkig         
    ##  6 0.0748  ENSMUSG00000017950 ENSMUSG00000017858 Hnf4a     Ift52        
    ##  7 0.0639  ENSMUSG00000017950 ENSMUSG00000053166 Hnf4a     Cdh22        
    ##  8 0.0351  ENSMUSG00000017950 ENSMUSG00000039725 Hnf4a     2810408M09Rik
    ##  9 0.0228  ENSMUSG00000017950 ENSMUSG00000087267 Hnf4a     4933427J07Rik
    ## 10 0.00213 ENSMUSG00000017950 ENSMUSG00000017707 Hnf4a     Serinc3      
    ## # ... with 11 more rows
…
